{
  "name": "OpenPatch-Runner-Java",
  "version": "1.0.0",
  "description": "",
  "title": "OpenPatch-Runner-Java API Docs",
  "url": "http://www.icb.uni-due.de/commoop/api",
  "sampleUrl": "http://localhost:5001/"
}
